module gitlab.com/bjjb/ishmael

go 1.14

require (
	github.com/Microsoft/go-winio v0.4.14 // indirect
	github.com/docker/distribution v2.7.1+incompatible // indirect
	github.com/docker/docker v1.13.1
	github.com/docker/go-connections v0.4.0 // indirect
	github.com/docker/go-units v0.4.0 // indirect
	github.com/opencontainers/go-digest v1.0.0 // indirect
	github.com/pkg/errors v0.9.1 // indirect
	golang.org/x/net v0.0.0-20200707034311-ab3426394381 // indirect
)
